<?xml version="1.0" encoding="UTF-8"?>
<!DOCTYPE svg PUBLIC "-//W3C//DTD SVG 1.1//EN" "http://www.w3.org/Graphics/SVG/1.1/DTD/svg11.dtd">
<!-- Creator: CorelDRAW 2021 (64-Bit) -->
<svg xmlns="http://www.w3.org/2000/svg" xml:space="preserve" width="4.2332mm" height="4.2332mm" version="1.1" style="shape-rendering:geometricPrecision; text-rendering:geometricPrecision; image-rendering:optimizeQuality; fill-rule:evenodd; clip-rule:evenodd"
viewBox="0 0 423.32 423.32"
 xmlns:xlink="http://www.w3.org/1999/xlink"
 xmlns:xodm="http://www.corel.com/coreldraw/odm/2003">
 <defs>
  <style type="text/css">
   <![CDATA[
    .fil0 {fill:#131313}
    .fil1 {fill:#D20E0E;fill-rule:nonzero}
   ]]>
  </style>
 </defs>
 <g id="Слой_x0020_1">
  <metadata id="CorelCorpID_0Corel-Layer"/>
  <g id="Group_x0020_65.svg">
   <path class="fil0" d="M288.65 176.67c5.68,9.25 4.38,89.53 -0.94,99.33l-10.55 1.23c-4.76,-8.61 -4.12,-35.57 -3.6,-57.01l0 0c0.16,-6.83 0.31,-13.09 0.26,-18.02 0.08,-2.53 0.94,-25.02 0.94,-25.02 3.97,-0.5 6.83,-0.43 9.19,-0.38l0 0c1.76,0.04 3.24,0.08 4.7,-0.13zm-154.47 100.13c-4.1,-7.3 -6.15,-87.98 -2.06,-99.65 0,0 6.1,-0.54 14.02,-0.19 3.62,6.36 2.67,55.31 2.23,78.4l0 0 0 0c-0.06,3.13 -0.11,5.78 -0.14,7.78 -0.19,12.96 -0.56,15.18 -14.05,13.66zm-19.87 -102.63c0.01,3.7 -0.17,6.95 -0.33,9.83 -0.41,7.62 -0.69,12.62 3.03,16.56l5.71 3.98 -0.06 5.02 0 0c-0.22,17.68 -0.45,36.08 -0.12,53.56 0.43,22.45 18.89,29.7 29.42,17.51 6.17,-7.13 5.12,-30.78 4.29,-49.45 -0.36,-8.22 -0.68,-15.47 -0.33,-19.92 0.84,-10.49 1.02,-10.31 1.76,-9.58 0.46,0.43 1.12,1.07 2.26,-0.32l0.01 0c0.44,-0.01 7.62,-0.25 4.03,-24.85 -2.06,-6.84 -3.84,-5.92 -5.16,-5.24 -1.31,0.68 -2.17,1.12 -2.38,-6.44l108.8 -0.98c-0.36,5.58 -1.48,5.98 -2.75,6.43 -2.12,0.76 -4.66,1.67 -4.79,27.26 0.83,0.72 1.58,1.37 2.26,1.95 2.37,2.03 3.86,3.3 4.77,4.9 1.54,2.69 1.46,6.32 1.25,16.04 -0.1,4.74 -0.24,10.92 -0.24,19.16 0,3.13 -0.13,6.39 -0.26,9.66l0 0c-0.59,14.43 -1.18,29.11 9.53,34.68 26.05,13.53 24.88,-21.25 23.92,-50.03 -0.51,-15.2 -0.97,-28.73 2.67,-32.58l5.84 -3.78 0 -26.19c-1.32,-0.07 -2.44,-0.12 -3.38,-0.15 -2.7,-0.1 -4.01,-0.15 -4.63,-0.83 -0.58,-0.65 -0.54,-1.87 -0.45,-4.25 0.05,-1.4 0.12,-3.21 0.08,-5.55 1.91,-1.4 3.7,-2.31 5.57,-3.27 2.16,-1.1 4.43,-2.27 7.16,-4.31 2.98,-2.23 4.18,-3.59 5.14,-4.67 1.45,-1.62 2.34,-2.63 7.82,-5.03 0.96,2.74 1.84,5.17 2.66,7.41l0 0c4.32,11.78 6.68,18.22 6.68,37.49l0 184.57c-0.01,30.99 -16.68,34.47 -45.41,34.36 -5.64,-0.02 -17.1,0.11 -31.63,0.28 -50.43,0.58 -137.95,1.59 -148.31,-1.86 -12.95,-4.31 -19.29,-13.38 -19.88,-28.43l0.02 -146.87c0,-4.63 -0.14,-9.72 -0.29,-15.05 -0.68,-24.83 -1.5,-55.12 10.82,-71.02l17.84 12.27c0.99,0.69 1.9,1.15 2.69,1.56 2.69,1.36 4.04,2.05 2.57,8.58 -0.36,1.63 -0.6,2.77 -0.75,3.55 -0.25,1.21 -0.32,1.58 -0.45,1.6 -0.06,0.01 -0.13,-0.05 -0.22,-0.14 -0.51,-0.45 -1.84,-1.61 -6.78,2.58zm55.19 -18.54c-52.65,0 -77.74,-6.36 -63.92,-66.61 5.76,-25.06 13.93,-25.51 40.55,-25.28l130.85 0c0.93,-0.01 1.84,-0.02 2.73,-0.02l0 0c24.15,-0.23 31.74,-0.3 37.25,25.92 14.55,69.26 -24.6,68.39 -103.22,66.62 -13.59,-0.3 -28.36,-0.63 -44.24,-0.63zm6.94 -99.7c7.6,-41.59 64.04,-43.78 73.78,-0.13l-73.78 0.13zm-19.93 -0.13c4.99,-22.43 30.18,-41.03 57.37,-40.56 26.26,0.46 50.18,18.59 54.58,40.69 -3.47,-0.07 -5.94,0.03 -7.72,0.11 -2.48,0.1 -3.62,0.14 -4.29,-0.39 -0.58,-0.45 -0.82,-1.32 -1.26,-2.92 -0.41,-1.45 -0.98,-3.51 -2.12,-6.41 -6.83,-17.34 -19.53,-28.27 -41.57,-27.56 -14.67,0.46 -24.13,7.04 -30.73,14.85 -7.1,8.39 -7.92,13.64 -8.42,16.91 -0.7,4.49 -0.82,5.24 -15.84,5.28zm-10.37 -0.22c-1.65,0.05 -3.23,0.09 -4.76,0.13 -22.03,0.54 -32.66,0.8 -40.89,21.47 -3.5,8.81 -3.58,20.22 -3.66,31.38 -0.09,11.6 -0.17,22.93 -4.08,30.8 -11.32,22.74 -12.08,25.03 -12.06,55.83 0,6.92 -0.13,17.66 -0.29,30.67 -0.69,57.59 -1.93,159.72 5.49,172.08 12.17,20.26 52.03,18.74 89.57,17.31l0 0c11.79,-0.45 23.35,-0.88 33.76,-0.64 6,0.14 11.74,0.29 17.23,0.43 63.98,1.61 93.53,2.36 106.82,-11.98 11.4,-12.3 10.82,-35.71 9.75,-79.22 -0.38,-15.33 -0.82,-33.16 -0.82,-53.88 0,-6.5 0.19,-14.17 0.4,-22.51l0 0c0.89,-35.95 2.09,-84.34 -10.28,-105.31 -6.37,-10.81 -6.41,-24.28 -6.45,-37.35 -0.07,-25.38 -0.13,-49.22 -46.56,-49.01l-10.1 -18.64c-12.04,-17.3 -32.11,-29.28 -55.29,-29.8 -39.95,-0.89 -54.67,25.39 -63.27,40.74 -1.7,3.03 -3.15,5.62 -4.51,7.5zm-39.13 270.77c15.23,4.89 62.6,4.32 79.73,0.71l-0.21 50.58 -79.58 -0.46 0.06 -50.83zm-1.45 -30.67l84.65 0.92 -3.33 21.79c-0.01,0 -0.04,0.01 -0.09,0.02 -0.06,0.01 -0.13,0.02 -0.22,0.03 -4.76,0.77 -60.72,9.84 -77.7,-3.64 -3.21,-2.54 -3.35,-15.53 -3.31,-19.12zm-6.02 90.17l94.2 -0.26c1.67,-9.99 1.31,-24.35 1,-36.75 -0.1,-3.99 -0.19,-7.77 -0.22,-11.14 -0.05,-9.86 0.8,-18.08 1.68,-26.62l0 0c0.75,-7.2 1.52,-14.62 1.79,-23.43l-100.94 0.25 2.49 97.95zm213.06 -58.79c-17.14,3.61 -64.51,4.18 -79.73,-0.71l-0.07 50.83 79.58 0.46 0.22 -50.58zm3.46 -30.46l-84.64 -0.92c-0.05,3.59 0.1,16.58 3.3,19.12 16.98,13.48 72.95,4.41 77.7,3.64 0.19,-0.03 0.3,-0.05 0.32,-0.05l3.32 -21.79zm3.53 88.99l-94.19 0.26 -2.5 -97.95 100.94 -0.25c-0.27,8.81 -1.04,16.23 -1.78,23.43 -0.89,8.54 -1.74,16.76 -1.68,26.62 0.02,3.37 0.11,7.15 0.21,11.14 0.31,12.4 0.67,26.76 -1,36.75z"/>
   <path class="fil1" d="M275.91 317.69c4.42,0 8.01,-3.52 8.01,-7.86 0,-4.34 -3.59,-7.86 -8.01,-7.86 -4.42,0 -8.01,3.52 -8.01,7.86 0,4.34 3.59,7.86 8.01,7.86zm-128.59 2.38c4.42,0 8.01,-3.52 8.01,-7.86 0,-4.35 -3.59,-7.87 -8.01,-7.87 -4.42,0 -8.01,3.52 -8.01,7.87 0,4.34 3.59,7.86 8.01,7.86z"/>
  </g>
 </g>
</svg>
